{
  "data": {
    "rules": "page_title irlike \"warnme\" & action == \"edit\"",
    "name": "FileImporter warning",
    "comments": "",
    "group": "default",
    "actions": {
      "warn": [ "abusefilter-warning-testing" ]
    },
    "enabled": true,
    "deleted": false,
    "privacylevel": 0,
    "global": false
  },
  "actions": {
    "warn": [ "abusefilter-warning-testing" ]
  }
}
